<?xml version="1.0" encoding="UTF-8"?>
<glyph name="a-hira" format="1">
  <advance width="320"/>
  <unicode hex="3042"/>
  <note>
    exclam
  </note>
  <outline>
    <contour>
      <point x="280" y="0" type="line"/>
      <point x="280" y="120" type="line"/>
      <point x="240" y="120" type="line"/>
      <point x="240" y="160" type="line"/>
      <point x="120" y="160" type="line"/>
      <point x="120" y="200" type="line"/>
      <point x="240" y="200" type="line"/>
      <point x="240" y="240" type="line"/>
      <point x="120" y="240" type="line"/>
      <point x="120" y="280" type="line"/>
      <point x="80" y="280" type="line"/>
      <point x="80" y="240" type="line"/>
      <point x="0" y="240" type="line"/>
      <point x="0" y="200" type="line"/>
      <point x="80" y="200" type="line"/>
      <point x="80" y="120" type="line"/>
      <point x="40" y="120" type="line"/>
      <point x="40" y="80" type="line"/>
      <point x="80" y="80" type="line"/>
      <point x="80" y="40" type="line"/>
      <point x="120" y="40" type="line"/>
      <point x="120" y="120" type="line"/>
      <point x="200" y="120" type="line"/>
      <point x="200" y="80" type="line"/>
      <point x="240" y="80" type="line"/>
      <point x="240" y="0" type="line"/>
    </contour>
    <contour>
      <point x="40" y="0" type="line"/>
      <point x="40" y="80" type="line"/>
      <point x="0" y="80" type="line"/>
      <point x="0" y="0" type="line"/>
    </contour>
    <contour>
      <point x="120" y="-40" type="line"/>
      <point x="120" y="0" type="line"/>
      <point x="40" y="0" type="line"/>
      <point x="40" y="-40" type="line"/>
    </contour>
    <contour>
      <point x="160" y="0" type="line"/>
      <point x="160" y="40" type="line"/>
      <point x="120" y="40" type="line"/>
      <point x="120" y="0" type="line"/>
    </contour>
    <contour>
      <point x="240" y="-40" type="line"/>
      <point x="240" y="0" type="line"/>
      <point x="200" y="0" type="line"/>
      <point x="200" y="-40" type="line"/>
    </contour>
    <contour>
      <point x="200" y="40" type="line"/>
      <point x="200" y="80" type="line"/>
      <point x="160" y="80" type="line"/>
      <point x="160" y="40" type="line"/>
    </contour>
  </outline>
</glyph>
