<?xml version="1.0" encoding="UTF-8"?>
<glyph name="dblhyphen-kana" format="1">
  <advance width="320"/>
  <unicode hex="30A0"/>
  <note>
    A
  </note>
  <outline>
    <contour>
      <point x="244" y="120" type="line"/>
      <point x="244" y="160" type="line"/>
      <point x="80" y="160" type="line"/>
      <point x="80" y="120" type="line"/>
    </contour>
    <contour>
      <point x="244" y="40" type="line"/>
      <point x="244" y="80" type="line"/>
      <point x="80" y="80" type="line"/>
      <point x="80" y="40" type="line"/>
    </contour>
  </outline>
</glyph>
